Some Simple SPOOKY Data Analysis
…
## Joining, by = "id"

female_only <- anti_join(female_groups,male_groups)

## Joining, by = "id"

male_lines <- spooky %>%
  filter(id %in% male_only$id)
female_lines <- spooky %>%
  filter(id %in% female_only$id)

#Tagging with sentiments
get_sentiments('nrc')

## # A tibble: 13,901 x 2
##    word        sentiment
##    <chr>       <chr>    
##  1 abacus      trust    
##  2 abandon     fear     
##  3 abandon     negative 
##  4 abandon     sadness  
##  5 abandoned   anger    
##  6 abandoned   fear     
##  7 abandoned   negative 
##  8 abandoned   sadness  
##  9 abandonment anger    
## 10 abandonment fear     
## # ... with 13,891 more rows
…
## Joining, by = "id"

plural_only <- anti_join(plural_groups,single_groups)

## Joining, by = "id"

single_lines <- spooky %>%
  filter(id %in% single_only$id)
plural_lines <- spooky %>%
  filter(id %in% plural_only$id)

get_sentiments('nrc')

## # A tibble: 13,901 x 2
##    word        sentiment
##    <chr>       <chr>    
##  1 abacus      trust    
##  2 abandon     fear     
##  3 abandon     negative 
##  4 abandon     sadness  
##  5 abandoned   anger    
##  6 abandoned   fear     
##  7 abandoned   negative 
##  8 abandoned   sadness  
##  9 abandonment anger    
## 10 abandonment fear     
## # ... with 13,891 more rows
…
## Joining, by = "id"

dark_only <- anti_join(dark_groups,light_groups)

## Joining, by = "id"

light_lines <- spooky %>%
  filter(id %in% light_only$id)
dark_lines <- spooky %>%
  filter(id %in% dark_only$id)

get_sentiments('nrc')

## # A tibble: 13,901 x 2
##    word        sentiment
##    <chr>       <chr>    
##  1 abacus      trust    
##  2 abandon     fear     
##  3 abandon     negative 
##  4 abandon     sadness  
##  5 abandoned   anger    
##  6 abandoned   fear     
##  7 abandoned   negative 
##  8 abandoned   sadness  
##  9 abandonment anger    
## 10 abandonment fear     
## # ... with 13,891 more rows
…
